Exploratory Data Analysis
…
Basic Counts and Amounts

d |> 
  count(manufacturer, sort=T)

# A tibble: 107 × 2
   manufacturer                                                n
   <chr>                                                   <int>
 1 Biocan Diagnostics Inc                                    330
 2 Advaite Inc.                                              220
 3 Beijing Wantai Biological Pharmacy Enterprise Co., Ltd.   220
 4 Bio-Rad                                                   220
 5 Euroimmun                                                 220
 6 Euroimmun Medizinische Labordiagnostika AG                220
 7 Guangzhou Wondfo Biotech Co., Ltd.                        220
 8 InBios International Inc.                                 220
 9 InBios International, Inc.                                220
10 Nirmidas Biotech, Inc                                     220
# ℹ 97 more rows

d |> 
  count(device, sort=T)

# A tibble: 116 × 2
   device                                                              n
   <chr>                                                           <int>
 1 COVID-19 (SARS-CoV-2) IgM/IgG Antibody Detection Kit              220
 2 COVID-19 IgG/IgM Rapid Test Kit                                   220
 3 COVID-19 IgG/IgM Test Cassettes (Whole Blood/Serum/Plasma)        220
 4 EUROIMMUN Anti-SARS-CoV-2 S1 Curve ELISA (IgG)                    220
 5 Platelia SARS-CoV-2 Total Ab                                      220
 6 SARS-COV-2 ELISA                                                  220
 7 2019-nCoV IgG/IgM Detection Kit (Colloidal Gold)                  110
 8 2019-nCoV IgG/IgM Rapid Test Cassette(Whole Blood/Serum/Plasma)   110
 9 ACCEL ELISA COVID-19                                              110
10 ADEXUSDx COVID-19 Test                                            110
# ℹ 106 more rows
…
